<?xml version="1.0" encoding="utf-8"?>
<!-- Generator: Adobe Illustrator 22.1.0, SVG Export Plug-In . SVG Version: 6.00 Build 0)  -->
<svg version="1.1" id="Layer_1" xmlns="http://www.w3.org/2000/svg" xmlns:xlink="http://www.w3.org/1999/xlink" x="0px" y="0px"
	 viewBox="0 0 3.5 2" style="enable-background:new 0 0 3.5 2;" xml:space="preserve">
<style type="text/css">
	.st0{fill:#FFFFFF;}
</style>
<g id="caret-arrow-up" transform="translate(3.5 2) rotate(180)">
	<path id="Path_11" class="st0" d="M3.435,1.622L1.9,0.066C1.8195-0.0191,1.6854-0.0228,1.6003,0.0577
		C1.5975,0.0604,1.5947,0.0632,1.592,0.066L0.065,1.622c-0.0862,0.0857-0.0865,0.225-0.0009,0.3111
		C0.0644,1.9334,0.0647,1.9337,0.065,1.934C0.1049,1.9765,0.1607,2.0004,0.219,2h3.062c0.0583,0.0004,0.1141-0.0235,0.154-0.066
		c0.0862-0.0857,0.0865-0.225,0.0009-0.3111C3.4356,1.6226,3.4353,1.6223,3.435,1.622z"/>
</g>
</svg>
