<?xml version="1.0" encoding="utf-8"?>
<!-- Generator: Adobe Illustrator 22.1.0, SVG Export Plug-In . SVG Version: 6.00 Build 0)  -->
<svg version="1.1" id="Layer_1" xmlns="http://www.w3.org/2000/svg" xmlns:xlink="http://www.w3.org/1999/xlink" x="0px" y="0px"
	 viewBox="0 0 14 14" style="enable-background:new 0 0 14 14;" xml:space="preserve">
<style type="text/css">
	.st0{fill:#FFFFFF;}
</style>
<g id="Icon" transform="translate(-20.982 0)">
	<g id="Group_18" transform="translate(20.982 0)">
		<path id="Path_26" class="st0" d="M2.851,2.776c2.3001-1.8444,5.5494-1.923,7.936-0.192L8.97,2.647
			C8.7491,2.6437,8.5674,2.8201,8.564,3.041c0,0.002,0,0.004,0,0.006c0.019,0.2167,0.2047,0.3803,0.422,0.372h0.016l2.789-0.094
			c0.2179,0.0034,0.3984-0.1682,0.406-0.386V2.893l0,0l-0.1-2.521C12.0774,0.1478,11.8803-0.0185,11.656,0
			c-0.2209-0.0033-0.4026,0.1731-0.406,0.394c0,0.002,0,0.004,0,0.006l0.068,1.581c-2.7162-1.9694-6.4143-1.878-9.03,0.223
			C0.4285,3.68-0.3897,6.1111,0.199,8.411c0.0546,0.1794,0.2226,0.2999,0.41,0.294c0.0337,0.0006,0.0673-0.0031,0.1-0.011
			c0.2099-0.0372,0.3499-0.2375,0.3128-0.4474C1.0207,8.2404,1.0194,8.2342,1.018,8.228C0.5005,6.2082,1.2184,4.0729,2.851,2.776z"
			/>
		<path id="Path_27" class="st0" d="M13.804,5.589c-0.0686-0.2142-0.2919-0.3381-0.51-0.283
			c-0.21,0.0367-0.3505,0.2366-0.3139,0.4466c0.0011,0.0065,0.0024,0.013,0.0039,0.0194c0.5186,2.0202-0.2004,4.1565-1.835,5.452
			c-2.3184,1.8584-5.5977,1.9216-7.986,0.154l1.839-0.152c0.2207-0.0102,0.3913-0.1974,0.3811-0.4181
			c0-0.0006-0.0001-0.0013-0.0001-0.0019c-0.032-0.2226-0.237-0.3781-0.46-0.349l-2.78,0.229
			c-0.2207,0.0102-0.3913,0.1974-0.3811,0.4181c0,0.0006,0.0001,0.0013,0.0001,0.0019l0.25,2.542
			C2.041,13.8553,2.2218,14.0072,2.431,14c0.0126,0.0014,0.0254,0.0014,0.038,0c0.2207-0.0102,0.3913-0.1974,0.3811-0.4181
			c0-0.0006-0.0001-0.0013-0.0001-0.0019L2.7,12.033c1.1685,0.855,2.5652,1.3425,4.012,1.4c0.119,0.006,0.238,0.009,0.353,0.009
			c1.6934,0.0106,3.3375-0.5697,4.649-1.641C13.5763,10.3248,14.3952,7.8907,13.804,5.589z"/>
	</g>
</g>
</svg>
