<svg xmlns="http://www.w3.org/2000/svg" viewBox="0 0 32.765 56.569">
  <defs>
    <style>
      .cls-1 {
        fill: #495a79;
      }

      .cls-2 {
        fill: #42516d;
      }

      .cls-3 {
        fill: #6f7d96;
      }

      .cls-4 {
        fill: #66728b;
      }

      .cls-5 {
        fill: #4da6ff;
      }

      .cls-6 {
        fill: #4596e6;
      }

      .cls-7 {
        fill: #3d85cc;
      }

      .cls-8 {
        fill: #e0e4ec;
      }

      .cls-9 {
        fill: #d1d7e3;
      }
    </style>
  </defs>
  <g id="sport-bottle" transform="translate(-11.903 28.283) rotate(-45)">
    <path id="Path_107" data-name="Path 107" class="cls-1" d="M416.53,1.038a3.494,3.494,0,0,0-4.968,0L409.9,2.7a1.174,1.174,0,0,0,0,1.64l3.328,3.328a1.174,1.174,0,0,0,1.64,0l1.664-1.664A3.494,3.494,0,0,0,416.53,1.038Z" transform="translate(-377.566)"/>
    <path id="Path_108" data-name="Path 108" class="cls-2" d="M440.1,18.241,438.44,19.9a1.174,1.174,0,0,1-1.64,0l-1.664-1.664,4.968-4.968A3.494,3.494,0,0,1,440.1,18.241Z" transform="translate(-401.141 -12.235)"/>
    <path id="Path_109" data-name="Path 109" class="cls-3" d="M356.244,25.639,354.6,24l-1.664-1.664a3.494,3.494,0,0,0-4.968,0l-1.664,1.64a1.2,1.2,0,0,0,0,1.664l3.328,3.328,3.3,3.3a1.2,1.2,0,0,0,1.664,0l1.64-1.664A3.494,3.494,0,0,0,356.244,25.639Z" transform="translate(-318.944 -19.632)"/>
    <path id="Path_110" data-name="Path 110" class="cls-4" d="M399.45,62.475l-1.64,1.664a1.2,1.2,0,0,1-1.664,0l-3.3-3.3,4.968-4.968,1.64,1.64A3.494,3.494,0,0,1,399.45,62.475Z" transform="translate(-362.151 -51.501)"/>
    <path id="Path_111" data-name="Path 111" class="cls-5" d="M236.026,37.24l-4.851,4.851a6.334,6.334,0,0,1-.867.7l-4.71-1.429-8.6-8.6-1.429-4.71a6.328,6.328,0,0,1,.7-.867l4.851-4.851a3.494,3.494,0,0,1,4.968,0l9.936,9.936A3.493,3.493,0,0,1,236.026,37.24Z" transform="translate(-198.727 -19.634)"/>
    <g id="Group_28" data-name="Group 28" transform="translate(0 7.67)">
      <path id="Path_112" data-name="Path 112" class="cls-6" d="M303.775,108.1l-4.851,4.851a6.332,6.332,0,0,1-.867.7l-4.71-1.429-4.289-4.288,9.748-9.772,4.968,4.968A3.493,3.493,0,0,1,303.775,108.1Z" transform="translate(-266.475 -98.163)"/>
      <path id="Path_113" data-name="Path 113" class="cls-6" d="M16.779,312.16l-.422.4-.422.422a3.5,3.5,0,0,1-2.484,1.031,3.535,3.535,0,0,1-2.484-1.031l-9.936-9.936A3.535,3.535,0,0,1,0,300.56a3.5,3.5,0,0,1,1.031-2.484l.422-.422.4-.422.844.351.82.352L16.076,310.5l.352.82Z" transform="translate(0 -281.68)"/>
    </g>
    <path id="Path_114" data-name="Path 114" class="cls-7" d="M87.568,394.562l-.422.4-.422.422a3.5,3.5,0,0,1-2.484,1.031,3.535,3.535,0,0,1-2.484-1.031l-4.968-4.968,3.8-3.8,6.28,6.28.352.82Z" transform="translate(-70.789 -356.412)"/>
    <path id="Path_115" data-name="Path 115" class="cls-5" d="M45,230.385a5.172,5.172,0,0,1-.7.867l-5.671,5.694L23.7,222.019l5.671-5.671a6.535,6.535,0,0,1,.89-.7l4.71,1.429,8.6,8.6Z" transform="translate(-21.845 -198.796)"/>
    <path id="Path_116" data-name="Path 116" class="cls-6" d="M133.208,298.132a5.172,5.172,0,0,1-.7.867l-5.671,5.694-7.452-7.452,8.108-8.108,4.289,4.289Z" transform="translate(-110.055 -266.543)"/>
    <path id="Path_117" data-name="Path 117" class="cls-8" d="M130.854,122.5c-2.25,1.5-3.671.531-5.874,2.734s-1.031,3.445-2.554,5.694l-7.358-7.358-7.382-7.382c2.25-1.523,3.648-.508,5.851-2.71s1.078-3.468,2.578-5.718l7.382,7.382Z" transform="translate(-99.273 -99.341)"/>
    <path id="Path_118" data-name="Path 118" class="cls-9" d="M217.958,209.6c-2.25,1.5-3.671.531-5.874,2.734s-1.031,3.445-2.554,5.694l-7.358-7.358,8.429-8.429Z" transform="translate(-186.376 -186.444)"/>
  </g>
</svg>
