<?xml version="1.0" encoding="utf-8"?>
<!-- Generator: Adobe Illustrator 20.1.0, SVG Export Plug-In . SVG Version: 6.00 Build 0)  -->
<svg version="1.1" id="Capa_1" xmlns="http://www.w3.org/2000/svg" xmlns:xlink="http://www.w3.org/1999/xlink" x="0px" y="0px"
	 viewBox="0 0 512 341.3" style="enable-background:new 0 0 512 341.3;" xml:space="preserve">
<style type="text/css">
	.st0{fill:#D8222A;}
</style>
<g>
	<g>
		<path class="st0" d="M458.7,0H53.3C23.9,0,0,23.9,0,53.3V288c0,29.4,23.9,53.3,53.3,53.3h405.3c29.4,0,53.3-23.9,53.3-53.3V53.3
			C512,23.9,488.1,0,458.7,0z M490.7,288c0,17.6-14.4,32-32,32H53.3c-17.6,0-32-14.4-32-32V53.3c0-17.6,14.4-32,32-32h405.3
			c17.6,0,32,14.4,32,32L490.7,288L490.7,288z"/>
	</g>
</g>
<g>
	<g>
		<path class="st0" d="M501.3,64H10.7C4.8,64,0,68.8,0,74.7v64c0,5.9,4.8,10.7,10.7,10.7h490.7c5.9,0,10.7-4.8,10.7-10.7v-64
			C512,68.8,507.2,64,501.3,64z M490.7,128H21.3V85.3h469.3L490.7,128L490.7,128z"/>
	</g>
</g>
<g>
	<g>
		<path class="st0" d="M202.7,213.3h-128c-5.9,0-10.7,4.8-10.7,10.7s4.8,10.7,10.7,10.7h128c5.9,0,10.7-4.8,10.7-10.7
			S208.6,213.3,202.7,213.3z"/>
	</g>
</g>
<g>
	<g>
		<path class="st0" d="M202.7,256h-128c-5.9,0-10.7,4.8-10.7,10.7s4.8,10.7,10.7,10.7h128c5.9,0,10.7-4.8,10.7-10.7
			C213.3,260.8,208.6,256,202.7,256z"/>
	</g>
</g>
<g>
	<g>
		<path class="st0" d="M416,192h-21.3c-17.6,0-32,14.4-32,32v21.3c0,17.6,14.4,32,32,32H416c17.6,0,32-14.4,32-32V224
			C448,206.4,433.6,192,416,192z M426.7,245.3c0,5.9-4.8,10.7-10.7,10.7h-21.3c-5.9,0-10.7-4.8-10.7-10.7V224
			c0-5.9,4.8-10.7,10.7-10.7H416c5.9,0,10.7,4.8,10.7,10.7V245.3z"/>
	</g>
</g>
</svg>
