<svg xmlns="http://www.w3.org/2000/svg" viewBox="0 0 22 40">
  <defs>
    <style>
      .cls-1 {
        fill: #03263a;
      }

      .cls-2 {
        fill: #ff5b00;
      }

      .cls-3 {
        fill: #ff3c00;
      }

      .cls-4 {
        fill: #ff781d;
      }

      .cls-5 {
        fill: #ff8b00;
      }

      .cls-6 {
        fill: #053c54;
      }

      .cls-7 {
        fill: #055875;
      }
    </style>
  </defs>
  <g id="fridge" transform="translate(-113.6)">
    <g id="Group_21" data-name="Group 21" transform="translate(115.938 38.675)">
      <path id="Path_59" data-name="Path 59" class="cls-1" d="M143.206,468.127a.436.436,0,0,1-.413.4h-1.581a.436.436,0,0,1-.413-.4v-.53a.436.436,0,0,1,.413-.4h1.581a.436.436,0,0,1,.413.4Z" transform="translate(-140.8 -467.2)"/>
      <path id="Path_60" data-name="Path 60" class="cls-1" d="M316.806,468.127a.436.436,0,0,1-.413.4h-1.581a.436.436,0,0,1-.413-.4v-.53a.436.436,0,0,1,.413-.4h1.581a.436.436,0,0,1,.413.4Z" transform="translate(-299.481 -467.2)"/>
    </g>
    <path id="Path_61" data-name="Path 61" class="cls-2" d="M135.6,36.556c0,2.715-2.269,2.45-5.087,2.45H118.688c-2.819,0-5.087.265-5.087-2.45V4.9A4.985,4.985,0,0,1,118.688,0h11.825A4.985,4.985,0,0,1,135.6,4.9Z" transform="translate(0)"/>
    <g id="Group_22" data-name="Group 22" transform="translate(115.8)">
      <path id="Path_62" data-name="Path 62" class="cls-3" d="M235.081,0H228V39.007h7.081c2.819,0,5.087.265,5.087-2.45V4.9A4.985,4.985,0,0,0,235.081,0Z" transform="translate(-220.369)"/>
      <path id="Path_63" data-name="Path 63" class="cls-3" d="M148.619,75.34l-9.35-8.94-.069,5.828,3.3,3.113Z" transform="translate(-139.2 -60.903)"/>
      <path id="Path_64" data-name="Path 64" class="cls-3" d="M159,225.136v-.53L139.269,205.6l-.069,5.828,16.775,16.159C157.762,227.521,159,227.123,159,225.136Z" transform="translate(-139.2 -188.58)"/>
    </g>
    <path id="Path_65" data-name="Path 65" class="cls-4" d="M115.319,36.556V4.9A4.985,4.985,0,0,1,120.406,0h-1.719A4.985,4.985,0,0,0,113.6,4.9V36.556c0,2.715,2.269,2.45,5.087,2.45h0C116.763,39.007,115.319,38.675,115.319,36.556Z" transform="translate(0)"/>
    <path id="Path_66" data-name="Path 66" class="cls-5" d="M310.4,471.2h0Z" transform="translate(-179.887 -432.193)"/>
    <rect id="Rectangle_23" data-name="Rectangle 23" class="cls-1" width="22" height="1.589" transform="translate(113.6 13.709)"/>
    <g id="Group_23" data-name="Group 23" transform="translate(113.6 5.629)">
      <rect id="Rectangle_24" data-name="Rectangle 24" class="cls-6" width="22" height="0.795" transform="translate(0 8.808)"/>
      <path id="Path_67" data-name="Path 67" class="cls-6" d="M134.45,73.166a.821.821,0,0,1-.825.795h0a.822.822,0,0,1-.825-.795V68.795a.821.821,0,0,1,.825-.795h0a.822.822,0,0,1,.825.795Z" transform="translate(-131.15 -68)"/>
    </g>
    <path id="Path_68" data-name="Path 68" class="cls-7" d="M133.281,68.8a.813.813,0,0,0-.481.728V73.9a.523.523,0,1,0,.962,0V69.528A.644.644,0,0,0,133.281,68.8Z" transform="translate(-17.55 -63.105)"/>
    <path id="Path_69" data-name="Path 69" class="cls-6" d="M134.45,209.966a.821.821,0,0,1-.825.795h0a.822.822,0,0,1-.825-.795v-4.371a.821.821,0,0,1,.825-.795h0a.822.822,0,0,1,.825.795Z" transform="translate(-17.55 -187.846)"/>
    <path id="Path_70" data-name="Path 70" class="cls-7" d="M133.281,205.6a.813.813,0,0,0-.481.728V210.7a.523.523,0,1,0,.962,0v-4.371A.61.61,0,0,0,133.281,205.6Z" transform="translate(-17.55 -188.58)"/>
    <g id="Group_24" data-name="Group 24" transform="translate(132.712 10.728)">
      <path id="Path_71" data-name="Path 71" class="cls-4" d="M336.138,129.865a.145.145,0,0,1-.138-.132h0a.145.145,0,0,1,.138-.132h1.031a.145.145,0,0,1,.137.132h0a.145.145,0,0,1-.137.132Z" transform="translate(-336 -129.6)"/>
      <path id="Path_72" data-name="Path 72" class="cls-4" d="M336.138,140.265a.145.145,0,0,1-.138-.132h0a.145.145,0,0,1,.138-.132h1.031a.145.145,0,0,1,.137.132h0a.145.145,0,0,1-.137.132Z" transform="translate(-336 -139.139)"/>
      <path id="Path_73" data-name="Path 73" class="cls-4" d="M336.138,149.865a.145.145,0,0,1-.138-.132h0a.145.145,0,0,1,.138-.132h1.031a.145.145,0,0,1,.137.132h0a.145.145,0,0,1-.137.132Z" transform="translate(-336 -147.944)"/>
      <path id="Path_74" data-name="Path 74" class="cls-4" d="M336.138,431.465a.145.145,0,0,1-.138-.132h0a.145.145,0,0,1,.138-.132h1.031a.145.145,0,0,1,.137.132h0a.145.145,0,0,1-.137.132Z" transform="translate(-336 -406.233)"/>
      <path id="Path_75" data-name="Path 75" class="cls-4" d="M336.138,441.065a.145.145,0,0,1-.138-.132h0a.145.145,0,0,1,.138-.132h1.031a.145.145,0,0,1,.137.132h0a.145.145,0,0,1-.137.132Z" transform="translate(-336 -415.038)"/>
      <path id="Path_76" data-name="Path 76" class="cls-4" d="M336.138,451.465a.145.145,0,0,1-.138-.132h0a.145.145,0,0,1,.138-.132h1.031a.145.145,0,0,1,.137.132h0a.145.145,0,0,1-.137.132Z" transform="translate(-336 -424.577)"/>
    </g>
  </g>
</svg>
