<svg xmlns="http://www.w3.org/2000/svg" viewBox="0 0 40 28.182">
  <defs>
    <style>
      .cls-1 {
        fill: #fff;
      }
    </style>
  </defs>
  <g id="YouTube" transform="translate(-1523.792 -2321.757)">
    <path id="yt_icon_mono_dark" class="cls-1" d="M47.159,38.409a5.062,5.062,0,0,0-3.545-3.568C40.5,34,28,34,28,34s-12.5,0-15.636.841a5.023,5.023,0,0,0-3.545,3.568C8,41.545,8,48.091,8,48.091s0,6.545.841,9.682a5.062,5.062,0,0,0,3.545,3.568C15.5,62.182,28,62.182,28,62.182s12.5,0,15.636-.841a5.023,5.023,0,0,0,3.545-3.568C48,54.636,48,48.091,48,48.091S48,41.545,47.159,38.409ZM23.909,54.045V42.136l10.455,5.955Z" transform="translate(1515.792 2287.757)"/>
  </g>
</svg>
